My Data Analysis Portfolio - Tidy Tuesday Exercise 2
…
# Explore the categories of prod_type and prod_process
eggproduction%>%
  distinct(prod_type,prod_process,source)

# A tibble: 216 × 3
   prod_type     prod_process source                 
   <chr>         <chr>        <chr>                  
 1 hatching eggs all          ChicEggs-09-23-2016.pdf
 2 hatching eggs all          ChicEggs-10-21-2016.pdf
 3 hatching eggs all          ChicEggs-11-22-2016.pdf
 4 hatching eggs all          ChicEggs-12-23-2016.pdf
 5 hatching eggs all          ChicEggs-01-24-2017.pdf
 6 hatching eggs all          ChicEggs-02-28-2017.pdf
 7 hatching eggs all          ChicEggs-03-21-2017.pdf
 8 hatching eggs all          ChicEggs-04-21-2017.pdf
 9 hatching eggs all          ChicEggs-05-22-2017.pdf
10 hatching eggs all          ChicEggs-06-23-2017.pdf
# … with 206 more rows

# Explore the source
cagefreepercentages%>%
  distinct(source)

# A tibble: 31 × 1
   source                             
   <chr>                              
 1 Egg-Markets-Overview-2019-10-19.pdf
 2 Egg-Markets-Overview-2016-12-02.pdf
 3 computed                           
 4 Egg-Markets-Overview-2017-02-10.pdf
 5 Egg-Markets-Overview-2017-04-28.pdf
 6 Egg-Markets-Overview-2017-06-02.pdf
 7 Egg-Markets-Overview-2017-08-11.pdf
 8 Egg-Markets-Overview-2017-09-29.pdf
 9 Egg-Markets-Overview-2017-11-24.pdf
10 Egg-Markets-Overview-2018-03-09.pdf
# … with 21 more rows
…
# Defining hyperparameters
xgb_grid <- grid_latin_hypercube(
  tree_depth(),
  min_n(),
  loss_reduction(),
  sample_size = sample_prop(),
  finalize(mtry(), egg_train),
  learn_rate(),
  size = 30
)

xgb_grid

# A tibble: 30 × 6
   tree_depth min_n loss_reduction sample_size  mtry learn_rate
        <int> <int>          <dbl>       <dbl> <int>      <dbl>
 1          3    22       2.18e- 6       0.165     5   4.62e- 2
 2         11    40       3.11e- 3       0.450     3   2.30e- 6
 3          7    19       7.70e- 7       0.657     4   2.80e-10
 4          4     3       5.44e- 6       0.429     5   9.41e- 7
 5          6    28       1.69e- 7       0.969     3   3.19e- 6
 6          6    12       8.13e-10       0.725     2   1.36e- 2
 7          2    24       1.88e- 9       0.111     2   1.45e- 4
 8          1    30       5.02e- 7       0.635     2   1.04e- 9
 9         10    37       8.87e- 8       0.916     3   1.53e- 5
10         12    20       2.18e+ 0       0.289     3   1.08e- 8
# … with 20 more rows
…
There were issues with some computations:

  - Warning(s) x4: There was 1 warning in `dplyr::summarise()`. ℹ In argument: `.est...   - Warning(s) x1: There was 1 warning in `dplyr::summarise()`. ℹ In argument: `.est...   - Warning(s) x2: There was 1 warning in `dplyr::summarise()`. ℹ In argument: `.est...   - Warning(s) x3: There was 1 warning in `dplyr::summarise()`. ℹ In argument: `.est...

Run `show_notes(.Last.tune.result)` for more information.

Model evaluation

collect_metrics(xgb_res)

# A tibble: 60 × 12
    mtry min_n tree_depth learn_…¹ loss_…² sampl…³ .metric .esti…⁴    mean     n
   <int> <int>      <int>    <dbl>   <dbl>   <dbl> <chr>   <chr>     <dbl> <int>
 1     5    22          3 4.62e- 2 2.18e-6   0.165 rmse    standa…   2.23     10
 2     5    22          3 4.62e- 2 2.18e-6   0.165 rsq     standa… NaN         0
 3     3    40         11 2.30e- 6 3.11e-3   0.450 rmse    standa…  22.1      10
 4     3    40         11 2.30e- 6 3.11e-3   0.450 rsq     standa… NaN         0
 5     4    19          7 2.80e-10 7.70e-7   0.657 rmse    standa…  22.1      10
 6     4    19          7 2.80e-10 7.70e-7   0.657 rsq     standa… NaN         0
 7     5     3          4 9.41e- 7 5.44e-6   0.429 rmse    standa…  22.1      10
 8     5     3          4 9.41e- 7 5.44e-6   0.429 rsq     standa…   0.839     5
 9     3    28          6 3.19e- 6 1.69e-7   0.969 rmse    standa…  22.0      10
10     3    28          6 3.19e- 6 1.69e-7   0.969 rsq     standa…   0.857    10
# … with 50 more rows, 2 more variables: std_err <dbl>, .config <chr>, and
#   abbreviated variable names ¹​learn_rate, ²​loss_reduction, ³​sample_size,
#   ⁴​.estimator
…
