My Data Analysis Portfolio - model evaluation
…
── Preprocessor ────────────────────────────────────────────────────────────────
0 Recipe Steps

── Model ───────────────────────────────────────────────────────────────────────
Logistic Regression Model Specification (classification)

Computational engine: glm 

nausea_fit=nausea_workflow%>%
  fit(data=nausea_train)
nausea_fit%>%
  extract_fit_parsnip()%>%
  tidy()

# A tibble: 34 × 5
   term                 estimate std.error statistic p.value
   <chr>                   <dbl>     <dbl>     <dbl>   <dbl>
 1 (Intercept)           2.29        9.39     0.244    0.807
 2 SwollenLymphNodesYes  0.0156      0.227    0.0687   0.945
 3 ChestCongestionYes    0.317       0.244    1.30     0.193
 4 ChillsSweatsYes       0.00783     0.331    0.0237   0.981
 5 NasalCongestionYes    0.421       0.294    1.43     0.152
 6 SneezeYes             0.186       0.247    0.752    0.452
 7 FatigueYes            0.252       0.438    0.576    0.564
 8 SubjectiveFeverYes    0.319       0.266    1.20     0.230
 9 HeadacheYes           0.00852     0.311    0.0274   0.978
10 WeaknessMild         -0.433       0.502   -0.863    0.388
# … with 24 more rows

Use the trained workflow to predict both training and testing data

predict(nausea_fit,nausea_train)

# A tibble: 547 × 1
   .pred_class
   <fct>      
 1 No         
 2 No         
 3 No         
 4 No         
 5 No         
 6 No         
 7 No         
 8 No         
 9 No         
10 No         
# … with 537 more rows
…
predict(nausea_fit,nausea_test)

# A tibble: 183 × 1
   .pred_class
   <fct>      
 1 No         
 2 No         
 3 No         
 4 Yes        
 5 No         
 6 No         
 7 No         
 8 No         
 9 Yes        
10 Yes        
# … with 173 more rows
…
# Using roc_auc ()to estimate the area under the curve
nausea_aug_train%>%
  roc_auc(truth=Nausea,.pred_No)

# A tibble: 1 × 3
  .metric .estimator .estimate
  <chr>   <chr>          <dbl>
1 roc_auc binary         0.789

predict(nausea_fit,nausea_test)

# A tibble: 183 × 1
   .pred_class
   <fct>      
 1 No         
 2 No         
 3 No         
 4 Yes        
 5 No         
 6 No         
 7 No         
 8 No         
 9 Yes        
10 Yes        
# … with 173 more rows
…
# A tibble: 2 × 5
  term         estimate std.error statistic  p.value
  <chr>           <dbl>     <dbl>     <dbl>    <dbl>
1 (Intercept)  -0.629       0.165   -3.80   0.000145
2 RunnyNoseYes  0.00843     0.197    0.0428 0.966   

Use the trained workflow to predict both training and testing data

predict(nausea_fit2,nausea_train)

# A tibble: 547 × 1
   .pred_class
   <fct>      
 1 No         
 2 No         
 3 No         
 4 No         
 5 No         
 6 No         
 7 No         
 8 No         
 9 No         
10 No         
# … with 537 more rows
…
predict(nausea_fit2,nausea_test)

# A tibble: 183 × 1
   .pred_class
   <fct>      
 1 No         
 2 No         
 3 No         
 4 No         
 5 No         
 6 No         
 7 No         
 8 No         
 9 No         
10 No         
# … with 173 more rows
…
# Using roc_auc ()to estimate the area under the curve
nausea_aug_train2%>%
  roc_auc(truth=Nausea,.pred_No)

# A tibble: 1 × 3
  .metric .estimator .estimate
  <chr>   <chr>          <dbl>
1 roc_auc binary         0.501

predict(nausea_fit2,nausea_test)

# A tibble: 183 × 1
   .pred_class
   <fct>      
 1 No         
 2 No         
 3 No         
 4 No         
 5 No         
 6 No         
 7 No         
 8 No         
 9 No         
10 No         
# … with 173 more rows
…
