My Data Analysis Portfolio - machine learning
…
Creating regular grid of values for each hyperparameters in three models

# Decision Tree
tree_grid=grid_regular(cost_complexity(),
                       tree_depth(),
                       levels=5)
tree_grid

# A tibble: 25 × 2
   cost_complexity tree_depth
             <dbl>      <int>
 1    0.0000000001          1
 2    0.0000000178          1
 3    0.00000316            1
 4    0.000562              1
 5    0.1                   1
 6    0.0000000001          4
 7    0.0000000178          4
 8    0.00000316            4
 9    0.000562              4
10    0.1                   4
# … with 15 more rows
…
tree_rs

# Tuning results
# 5-fold cross-validation repeated 5 times using stratification 
# A tibble: 25 × 5
   splits            id      id2   .metrics          .notes          
   <list>            <chr>   <chr> <list>            <list>          
 1 <split [405/103]> Repeat1 Fold1 <tibble [50 × 6]> <tibble [1 × 3]>
 2 <split [405/103]> Repeat1 Fold2 <tibble [50 × 6]> <tibble [1 × 3]>
 3 <split [406/102]> Repeat1 Fold3 <tibble [50 × 6]> <tibble [1 × 3]>
 4 <split [408/100]> Repeat1 Fold4 <tibble [50 × 6]> <tibble [1 × 3]>
 5 <split [408/100]> Repeat1 Fold5 <tibble [50 × 6]> <tibble [1 × 3]>
 6 <split [405/103]> Repeat2 Fold1 <tibble [50 × 6]> <tibble [1 × 3]>
 7 <split [405/103]> Repeat2 Fold2 <tibble [50 × 6]> <tibble [1 × 3]>
 8 <split [406/102]> Repeat2 Fold3 <tibble [50 × 6]> <tibble [1 × 3]>
 9 <split [408/100]> Repeat2 Fold4 <tibble [50 × 6]> <tibble [1 × 3]>
10 <split [408/100]> Repeat2 Fold5 <tibble [50 × 6]> <tibble [1 × 3]>
# … with 15 more rows
…
# LASSO
set.seed(456)
glm_rs=glm_wf%>%
  tune_grid(
    resamples=bodytemp_folds,
    grid=glm_grid,
    control=control_grid(save_pred = TRUE),
    metrics=metric_set(rmse)
  )
glm_rs

# Tuning results
# 5-fold cross-validation repeated 5 times using stratification 
# A tibble: 25 × 6
   splits            id      id2   .metrics          .notes           .predict…¹
   <list>            <chr>   <chr> <list>            <list>           <list>    
 1 <split [405/103]> Repeat1 Fold1 <tibble [30 × 5]> <tibble [0 × 3]> <tibble>  
 2 <split [405/103]> Repeat1 Fold2 <tibble [30 × 5]> <tibble [0 × 3]> <tibble>  
 3 <split [406/102]> Repeat1 Fold3 <tibble [30 × 5]> <tibble [0 × 3]> <tibble>  
 4 <split [408/100]> Repeat1 Fold4 <tibble [30 × 5]> <tibble [0 × 3]> <tibble>  
 5 <split [408/100]> Repeat1 Fold5 <tibble [30 × 5]> <tibble [0 × 3]> <tibble>  
 6 <split [405/103]> Repeat2 Fold1 <tibble [30 × 5]> <tibble [0 × 3]> <tibble>  
 7 <split [405/103]> Repeat2 Fold2 <tibble [30 × 5]> <tibble [0 × 3]> <tibble>  
 8 <split [406/102]> Repeat2 Fold3 <tibble [30 × 5]> <tibble [0 × 3]> <tibble>  
 9 <split [408/100]> Repeat2 Fold4 <tibble [30 × 5]> <tibble [0 × 3]> <tibble>  
10 <split [408/100]> Repeat2 Fold5 <tibble [30 × 5]> <tibble [0 × 3]> <tibble>  
# … with 15 more rows, and abbreviated variable name ¹​.predictions
…
Computational engine: rpart 

# Fitting training data
tree_fit=tree_final%>%
  fit(bodytemp_train)
# Predicted value
tree_predict=tree_final%>%
  fit(bodytemp_train)%>%
  predict(bodytemp_train)
tree_predict

# A tibble: 508 × 1
   .pred
   <dbl>
 1  99.2
 2  99.2
 3  98.7
 4  98.7
 5  98.7
 6  98.7
 7  98.7
 8  99.2
 9  99.2
10  99.2
# … with 498 more rows
…
# Finalize the workflow
glm_final=
  glm_wf%>%
  finalize_workflow(best_glm)
# Fitting training data
glm_fit=glm_final%>%
  fit(bodytemp_train)
# Predicted value
glm_predict=glm_final%>%
  fit(bodytemp_train)%>%
  predict(bodytemp_train)
glm_predict

# A tibble: 508 × 1
   .pred
   <dbl>
 1  98.7
 2  98.8
 3  98.5
 4  98.9
 5  98.7
 6  98.7
 7  98.3
 8  99.3
 9  98.9
10  98.9
# … with 498 more rows
…
