My Data Analysis Portfolio - Tidy Tuesday Exercise
…
Interestingly, for same sex couples, the age difference slightly increase (p>0.05) throughout the years. Even though, it appeared on the screen fairly recently (after 1997) and the sample size is really small. Let’s see if there’s any director who has directed multiple movies with big-age-difference romantic relationships (over 20 years).

director_pref=age_gaps%>%
  select(director,age_difference)%>%
  filter(age_difference>20)%>%
  count(director)%>%
  filter(n>1)%>%
  arrange(desc(n))
director_pref

# A tibble: 21 × 2
   director             n
   <chr>            <int>
 1 Woody Allen          9
 2 John Glen            8
 3 Alfred Hitchcock     5
 4 Guy Hamilton         4
 5 Howard Hawks         3
 6 John Huston          3
 7 Adrian Lyne          2
 8 Charlie Chaplin      2
 9 Eli Roth             2
10 Joel Coen            2
# … with 11 more rows
…
